{
    "data" : [
        {
            "salarycode" : "I00010",
            "name" : "ULXy3X",
            "designation" : "Assistant Professor",
            "department" : "Electrical Engineering",
            "eligibilitydates" : [
                ["7000 AGP", "20-08-2014", "20-08-2013"],
                ["8000 AGP", "11-05-2016", "11-05-2014"]
            ],
	        "dateofeligibility" : "20-08-2013",
	        "presentquarter" : "qWbSDr"
        },
	    {
	        "salarycode" : "I00011",
	        "name" : "DRV3za",
	        "designation" : "Assistant Registrar",
	        "department" : "Academic",
	        "eligibilitydates" : [
		        ["5400 GP", "14-09-2012", ""]
	        ],
	        "dateofeligibility" : "14-09-2012",
	        "presentquarter" : "FwZXLd"
	    },
	    {
	        "salarycode" : "I00012",
	        "name" : "kBM6O4",
	        "designation" : "Associate Professor",
	        "department" : "Chemistry",
	        "eligibilitydates" : [
		        ["9500 AGP", "27-07-2016", "27-07-2012"]
	        ],
	        "dateofeligibility" : "27-07-2012",
	        "presentquarter" : "HBMeYs"
	    },
        {
	        "salarycode" : "I00013",
	        "name" : "7gFPqd",
	        "designation" : "Assistant Professor",
	        "department" : "SJM SOM",
	        "eligibilitydates" : [
		        ["7000 AGP", "09-12-2013", "09-12-2012"],
                ["8000 AGP", "26-11-2015", "26-11-2013"]
	        ],
	        "dateofeligibility" : "09-12-2012",
	        "presentquarter" : "NeA8B2"
        },
        {
	        "salarycode" : "I00014",
	        "name" : "ZiESr5",
	        "designation" : "Assistant Professor",
	        "department" : "Mathematics",
	        "eligibilitydates" : [
                ["8000 AGP", "17-06-2015", "17-06-2013"]
	        ],
	        "dateofeligibility" : "17-06-2013",
	        "presentquarter" : "6kQmIo"
        },
        {
	        "salarycode" : "I00015",
	        "name" : "PFhgIG",
	        "designation" : "Assistant Professor",
	        "department" : "Physics",
	        "eligibilitydates" : [
                ["8000 AGP", "29-06-2015", "29-06-2013"]
	        ],
	        "dateofeligibility" : "29-06-2013",
	        "presentquarter" : "zGQ6lQ"
        },
        {
            "salarycode" : "I00016",
            "name" : "HXKtHh",
            "designation" : "Assistant Professor",
            "department" : "Civil Engineering",
            "eligibilitydates" : [
                ["7000 AGP", "14-07-2014", "14-07-2013"],
                ["8000 AGP", "06-05-2016", "06-05-2014"]
            ],
	        "dateofeligibility" : "14-07-2013",
	        "presentquarter" : "UVme4c"
        },
        {
            "salarycode" : "I00017",
            "name" : "GvqiMS",
            "designation" : "Assistant Professor",
            "department" : "Electrical Engineering",
            "eligibilitydates" : [
                ["7000 AGP", "28-07-2014", "28-07-2013"],
                ["8000 AGP", "07-08-2016", "07-08-2014"]
            ],
	        "dateofeligibility" : "28-07-2013",
	        "presentquarter" : "CYFakt"
        },
        {
            "salarycode" : "I00018",
            "name" : "2nZVrP",
            "designation" : "Assistant Professor",
            "department" : "Electrical Engineering",
            "eligibilitydates" : [
                ["8000 AGP", "01-08-2013", "01-08-2013"],
                ["9000 AGP", "01-08-2016", "01-08-2016"]
            ],
	        "dateofeligibility" : "01-08-2013",
	        "presentquarter" : "mZw9Ls"
        },
	    {
	        "salarycode" : "I00019",
	        "name" : "tSvZSX",
	        "designation" : "Associate Professor",
	        "department" : "Chemical Engineering",
	        "eligibilitydates" : [
		        ["7000 AGP", "05-07-2012", ""],
		        ["8000 AGP", "23-07-2013", ""],
		        ["9000 AGP", "26-07-2012", ""],
		        ["9500 AGP", "01-12-2016", ""]
	        ],
	        "dateofeligibility" : "05-07-2012",
	        "presentquarter" : "tCfjgi"
	    },
        {
            "salarycode" : "I00020",
            "name" : "fKUzKn",
            "designation" : "Assistant Professor",
            "department" : "Mathematics",
            "eligibilitydates" : [
                ["8000 AGP", "17-08-2015", "17-08-2013"]
            ],
	        "dateofeligibility" : "17-08-2013",
	        "presentquarter" : "beLpXy"
        }
    ]
}
